{
    "train_config": {
        "fp16_run": true,
        "epochs": 100000,
        "learning_rate": 1e-4,
        "sigma": 1.0,
        "iters_per_checkpoint": 2000,
        "batch_size": 12,
        "seed": 1234,
        "checkpoint_path": ""
    },
    "data_config": {
        "resource_root": "resource",
        "training_files":"multi_filelist/kor_ms_2_audio_text_train_filelist.txt",
        "segment_length": 16000,
        "sampling_rate": 22050,
        "filter_length": 1024,
        "hop_length": 256,
        "win_length": 1024,
        "mel_fmin": 0.0,
        "mel_fmax": 8000.0,
        "load_mel_from_disk": false
    },
    "validation_files": "multi_filelist/kor_ms_2_audio_text_val_filelist.txt",

    "dist_config": {
        "dist_backend": "nccl",
        "dist_url": "tcp://localhost:54321"
    },

    "waveglow_config": {
        "n_mel_channels": 80,
        "n_flows": 12,
        "n_group": 8,
        "n_early_every": 4,
        "n_early_size": 2,
        "WN_config": {
            "n_layers": 8,
            "n_channels": 256,
            "kernel_size": 3
        }
    }
}
